Practical Machine Learning Course Project
…
z <- cor(subset.data.training[, -53])
# This will leave duplicates (eg, X, Y will also show as Y, X)
as.tibble(as.table(z)) %>%
    filter(Var1 != Var2) %>%
    arrange(desc(n)) %>%
    filter(n > 0.8)

## # A tibble: 22 x 3
##    Var1             Var2                 n
##    <chr>            <chr>            <dbl>
##  1 total_accel_belt roll_belt        0.981
##  2 roll_belt        total_accel_belt 0.981
##  3 gyros_forearm_z  gyros_dumbbell_z 0.933
##  4 gyros_dumbbell_z gyros_forearm_z  0.933
##  5 accel_belt_y     total_accel_belt 0.928
##  6 total_accel_belt accel_belt_y     0.928
##  7 accel_belt_y     roll_belt        0.925
##  8 roll_belt        accel_belt_y     0.925
##  9 magnet_belt_x    accel_belt_x     0.892
## 10 accel_belt_x     magnet_belt_x    0.892
## # ... with 12 more rows
…
